<svg width="52.998" height="53" version="1.1" viewBox="0 0 52.998 53" xmlns="http://www.w3.org/2000/svg">
  <path d="m1.543 0a1.546 1.546 0 0 0-1.543 1.5391v6.1758a1.543 1.543 0 0 0 1.543 1.543 1.543 1.543 0 0 0 1.543-1.543v-2.4473l3.5371 3.5391a1.543 1.543 0 0 0 2.1836-2.1836l-3.5391-3.5371h2.4473a1.543 1.543 0 0 0 0-3.0859h-6.1719zm43.74 0.0039062a1.543 1.543 0 0 0 0 3.0859v-0.0039063h2.4473l-3.5391 3.5371a1.543 1.543 0 1 0 2.1816 2.1836l3.5391-3.5391v2.4473a1.543 1.543 0 1 0 3.0859 0v-6.1719a1.545 1.545 0 0 0-1.3906-1.5313c-0.051 0-0.099344-0.0078125-0.15234-0.0078125h-6.1719zm-18.785 9.3574a23.574 23.574 0 0 0-10.367 2.5918c-6.333 3.108-12.588 9.1298-15.832 13.635a1.564 1.564 0 0 0 0 1.8242c3.21 4.454 9.4249 10.494 15.836 13.635a23.569 23.569 0 0 0 10.363 2.5938c6.927 0 13.401-3.658 18.631-8.166a51.824 51.824 0 0 0 7.5742-8.0605v-0.001953a1.562 1.562 0 0 0 0-1.8242c-3.21-4.454-9.4249-10.494-15.836-13.635a23.569 23.569 0 0 0-10.369-2.5918zm0.005859 3.1152c8.784 0 17.521 7.2004 22.982 14.023-2.6075 3.2444-12.074 14.02-22.982 14.023-8.791 0-17.528-7.2134-22.982-14.023 2.6-3.245 12.072-14.023 22.982-14.023zm-0.005859 3.2227a10.8 10.8 0 1 0 10.801 10.799 10.813 10.813 0 0 0-10.801-10.799zm-0.32031 3.0918a7.715 7.715 0 0 1 8.0352 7.709 7.724 7.724 0 0 1-7.7148 7.7148 7.715 7.715 0 0 1-0.32031-15.424zm0.32031 3.0801a4.629 4.629 0 1 0 4.6309 4.6289 4.634 4.634 0 0 0-4.6309-4.6289zm-0.0625 3.0879a1.543 1.543 0 0 1 1.6074 1.541 1.545 1.545 0 0 1-1.5449 1.543 1.543 1.543 0 0 1-0.0625-3.084zm-18.76 18.771a1.543 1.543 0 0 0-1.0527 0.46289l-3.5371 3.5391v-2.4473a1.543 1.543 0 0 0-3.0859 0v6.1719a1.546 1.546 0 0 0 1.543 1.5391h6.1719a1.543 1.543 0 1 0 0-3.0859v0.003906h-2.4473l3.5391-3.5371a1.543 1.543 0 0 0-1.1309-2.6465zm43.779 0.011719a1.543 1.543 0 0 0-1.543 1.543v2.4473l-3.5391-3.5391a1.543 1.543 0 0 0-2.1816 2.1836l3.5391 3.5371h-2.4473a1.543 1.543 0 1 0 0 3.0859h6.1719a1.547 1.547 0 0 0 1.5352-1.3906c0-0.049 0.00586-0.099484 0.00586-0.14648v-6.1738a1.543 1.543 0 0 0-1.541-1.5469z" fill="#d9d9d9"/>
</svg>
